%YAML 1.1
%TAG !u! tag:unity3d.com,2011:
--- !u!114 &11400000
MonoBehaviour:
  m_ObjectHideFlags: 0
  m_PrefabParentObject: {fileID: 0}
  m_PrefabInternal: {fileID: 0}
  m_GameObject: {fileID: 0}
  m_Enabled: 1
  m_EditorHideFlags: 0
  m_Script: {fileID: 146836576, guid: 0472bdc8d6d15384d98f22ee34302f9c, type: 3}
  m_Name: ProBuilderPreferences
  m_EditorClassIdentifier: 
  m_Bool_keys: []
  m_Int_keys:
  - pbDefaultEditLevel
  - pbDefaultSelectionMode
  - pbHandleAlignment
  m_Float_keys:
  - pbEditorScroll.x
  - pbEditorScroll.y
  m_String_keys: []
  m_Color_keys: []
  m_Material_keys: []
  m_Bool_values: 
  m_Int_values: 040000000000000000000000
  m_Float_values:
  - 0
  - 0
  m_String_values: []
  m_Color_values: []
  m_Material_values: []
